1400659813691195501123295255042072816723967849967902708377490901657618817875784794125541335603761
-726348760722424567188645
1655307002469845262064939307860562620216288002
1483289618170930945320629710087435224885984750702000160940309145261324471
909890458886409703630550
393533611990298984295944083828091013490814625225
160393424270349286459064134615010841553765429620
1169954786143479892464460
324560246219906253336839715818902792678960335560
816195568533703953072394117410635666837784932221
943520566837709846038637958064225503529063907592
1188506604055459755734858
862111328301590312310611
919214148415149872315191590277855304060968346662
-628423208231203636448693
1087607259901854017998579
564097829795294519358701952322648941053193248396836193598186579641322128490799794345666469203841
1056183777439913932225517
65069632766292378798002210360067656282833770935461011150815076911534384386458776808204267926232153266526255951981568
-613067450495042682056430
1342550631237223219020984
778350981278488430689715
53456469852751561827570
1422101953006536221072985
484711848719319266454146332139721176720490893898
309173223283844441733124090647465032396832810156
1087412208567314756310642
1364285684994842550273473
1284267485614130093773022
671232799919272441772266
241918952384980665912667915174566774264002140560071383622311176124651528
61986496996589051680340
97536353165004339851980396264294824252639488160
1723713179432590080701919640313488467693518680238794700740594964267540674362315202598489089169841
-191778561930161812102630
318996140866150157493207425724777632631694789965
129865967563025737991079
808884223776559282860633
1598130528436394936773952
-495094258317000649640856
146089105198398821338345424450520436272199188736
-406508185285327357134628
88759558439243682520738717841183586862298023419
274601742545800512560032722217649394851530884572
993237273189154351276631
8648084267940120627378161738548403003445531510
103735619362192945879123956450164029479748334136
2098020389805668205971564
-152204451589485319987542
61586756916072381757879995758053253538332547738
-252358760789388611514891
56062856580338917880652
1843934698696618795800779
4399018908473986921221029079418857183962812644
1039418808906741254154839
1222176096780295259171887
1655376064717715227204246
42298976613188259132761833273519286220026664263829462328817229198631889148101696885602750585901236153116267738067878176
554718022563733035468426196730788321084395589200
1541231358470664281987288
-309381463676406528523233
208428982700705067948357145738422502954910270652984127300485407531139000
2921781350012527079439276956814245040497867536
34692626088543102428854545281631989234088071309679101719832105843205397029369328773684187429681
857703085571562073482793
2041369494748214074779336
332597180055148897607585226815317834570292275555352576075827925000908126402899766166074706911441
1568869688506827664661841
41928378037348600433208707347049237913726794742234568740828687057049181095892877625058194973988516706969825236336279383035940089452551842681
910402753889856989326963
777878588960694470128472
427894651423055222943992177653242099554536152350
1155944481268207306159385779058914260225372395448
844630178648449146916961
941510569816165765626106
563860653729635164522610
38425536990049916693620
1576533830522992271576820
1277124308383927157836646
128594848154064184498078991260085374310620780050
280667238384589490862733919084936894314805564478082253180659362395145468980574405026959611649204715676921988613723249552979472700903103431229504
201804012163742140258479075106651844000541785951
1901695656789131944320860
706084557733326310731104507853981752132721097620
-679421198264177426191158
-664650307969727891035840
1402876728147702368172698
1388928189193346510153096
-967475739451931826457450
98258109396365470103282
110614541555916927308629145656096863799513238736
1103079520247790427789973
418413024478525687822365093322538448487176756844
1100925919451737039174239
8746388886289729574762048305285803906844009476
604622928360244257637712754137824776698084585104
1624896102153227899600040428868607726602793473312913753107421556444124091282263115757339387192336
389534522035115119595027640192579391358757843249
136951018384254390301621
1540894070289855744219205
582772325493937687029360155227449360234090019374972396936710813840378894750316514007943076642816
78430758966884767899921121874535268798316921270
168845131351088404112338379016513744971379429715111660933526877353099129064044938370120778619865813764898278206567213312941112538689925108441863239594462538502371799151
436220411378040610579077
1535203455425782834805832
1787603825546538832643546
-918051886057584005050366
21001635553934837190611418413248446361327289230189046146101027139405036498015605712441258081
791337157712425945615010697015446293807053827507193773924466865374543375
1020092671392687579713882
-276693355515561579542809
-214415124734275159184526
163058829952426626809768081042743986319811422867151472842772168493868492377466588273323489099776
1704536857878030714424982
189358393156034179421375954469577258923681375732
8948722541833334564592815219432475334106311128959309787964735769886815605170988304703341444962545321819196045358780939806461579107082691471055742856960000000
401621006267134817923060
-297060233402512827899815
2037151212412282308230566
1963408574314207949699193
-57690661748783584785508
492948689232588976500311485911361285370017260390
549571493083875909233724
614205400402954424443334229119646529232344240432
1843456721276344567953828
6693204530440663091909421456609109054654997370678180821824918264072221507672149483768406771601
900720151718380842217486
871237608504589181489726
1821098305572805888878400
1119074712172424304112970
1119394968485704890060365
44791448159598735693583721863783534724552947102390753929075293811199000
1203643574246930009678203037586287976689751174300
1861573217876302401249287
1083504098666800104708340
11753352252070474925657706671392316353046511555
95885077241068977987064005197478708557440000
-877489666406974092447709
55621739688076128142609072772342032346233257437512123564605829766240789943337362783060026891664308302815708405681250443
55853511344357853492494128014946116374862877377
92926941119600389124533394191730105170462578192821182817411041422220603
977749757507971989797720320159144427622035466040
88128512278694340776492022485900582767658427109723595851493991007923943760106973236708408032969916275502914227329241344687750308614770489845824
1958288981700320461051962
956219443641641241455908
22304831227092146561354583660076608742740798897093716505477032368160883936806696184568511762777663230604506404547658167392544157117288648704
113885399061604530422252441235890067721921062259202025260503270497292377
484378841224603259349378
1724276029490476739880628
1394202377173058254914810
1090590230152482530064667
602646332088007437166561
129334525483966444869857
-445749948198537877341541
-614391946805018371702747
-161221255119836889484375
-199027014229719533753494
-417698443819559771185978
15133318349094092015605060304943830927285413321
676886102075898004175918
254571687249913061677462375457912430150368848266
537901429020160500911129959155698408630071889361
130591776066807840081428014184788556057275505625
2076477245990785093271528
891512916403502529454507
1085057463054984561079859
630381914138498008539979849969647254227765974384
18144126254771421576709346215755167508873462612406823435803820668790137178749408261387504653321255393370999742965674849
1918480982577907428505327370951901877918871738628400607422875298229774215917259049736487413919701506054157498967812459640690483098425739279082536214791880703125
598035495066631966732417207608923463959236321335
131659069765356347879347284264611747291653227774
721119009772641936841440458884355279014378972420
23666967951090991204550106057769109276952371857479162718880046639165532130178922565104872130344762341841500067477357568
1917237150614397179679888108083889606922538472160715841200530976944329196277033486310002796321
756873394728667691293546
391633011027244412972462662146813619327445389664
73182312457462335510035
184948877868480128725442813388514118662420236615
136226989785869990400508
2099546649197960327399065
1257391695734752571981212695225679786078038816988
229369551533031825933838224954681227810057978859
1084341361511529995973258
331466732325995628374485385836303570601430023916
1849223721351423937391382965065276010084666031941897848924062754599475962514946715783313728390581436854002938169344966624
2039373974575678025598217
159488772927485809396962712546446248492819935082664755914405223228373210563183991014780816382084281271036634890666695743
1923686344307851782455320057172137581140786836050733947901858201950319407316823884901625628346142135443723609444625753140978616668286346442556662765146865522510544896
1975670751194234665394665
993036597644226641867467642109497750153633950236590907347104103169664538927764145109462029200393827228049490898152255651
232524186615031251904259711257171649693860436728114843255733176848838485172687779861679002346870830580712456007475103487575483151360659302956586328511195310410506823
-41497523316247869230259
465334748207972339308496
1545550131765037874704842
1477924125933822843606056429610589074022645129
-417835652051665619868925
439284197642661328716534790013854468512715114434
1881843512522660650918442495983871155471403119938122985352604608441368669567804232661645655851211214019949338593060133092247381831206505536000000
1412554854713337715288907577864427166510466263771390788249317660929528552
759198636816940625938471772494417418425131954078
1462370629048133482189751
65526134527408185872684
49140211039915456690176334478653579644489470248
72514294420152300175726543301739307021326854790
160576286007792563887699220375823225049997960409
1427782593590620200159391122440683506807432477529
190130914741949166417903485099736401278546644973
135886362519230388022337890234349374271862507696
-817598817199821518177902
627128603061731014051875
1151203876211251737169751
-927811257365325805439199
1294005628278842708774225
51153454996867589949470413051502822670895673242
216561962648393313796918312967962974329814193512
1417631975614683626025855
847570070468009989236263472120255886775479334635
288049970595720811418766316469586565084748927659551343047955288894700103662930833112720961976580210247006675765806455487874090701630944415723329
210721960393689579400507255554252848616768560952
604051751390936629829507
42649567614247347935076405406315739504575322973459368509846139103888896
673571022929938461314629933625351803071119856144674993392390222513828833
2294327823612769837067248862754570109932893059108126657366395819446714239908583534691221348695253476855534798359691464032
933130827748578280048339
701439318122571707008683
-730400510289717976779117
683685276452106237541895732411151668421509390724
-95715257458338665983570
972632430118268280797412
1475771089575864708252156
202945868554083900707334888096448319572339753995
624246762518979422485751
208758469392136359387241
43568221756305833160396
287428204372272636448441480145241500355845889288
868771272222849119999728
916640911665883142037310
100810936533114235074862540601574423638369048400
1294604438037848240285305
894498326798973106890685
1283686918519034042047262348165143766782509323236
20703017373012394854936922672293133199040231393964304471060942300913816
408528288946079175057727945728903696825449566347
370189708666710081159827627037654315127536702407643141231853262381857344
33227922533932285736785988858113503807929371401
682075116165126581293740155274980504265128624681045174808873240756828184
3581083082417410369682149366971459922700679314902044610136611736012141515190560722869438109127019546085613379551920465536904555502566655085669679370989812950343470823
584600654636162137541388
-420281028085017275572906
1238692488823174289115956
